…
``` r
# install.packages("pak")
pak::pak("m-muecke/isocountry")
```

## Usage

``` r
library(dplyr)
library(isocountry)

isocountry |>
  left_join(isocurrency, by = join_by(alpha_2 == country_code))
#> # A tibble: 265 × 19
#>    name       alpha_2 alpha_3 country_code iso_3166_2 is_independent region_code
#>    <chr>      <chr>   <chr>   <chr>        <chr>      <lgl>                <int>
#>  1 Afghanist… AF      AFG     004          ISO 3166-… TRUE                   142
#>  2 Åland Isl… AX      ALA     248          ISO 3166-… FALSE                  150
#>  3 Albania    AL      ALB     008          ISO 3166-… TRUE                   150
#>  4 Algeria    DZ      DZA     012          ISO 3166-… TRUE                     2
#>  5 American … AS      ASM     016          ISO 3166-… FALSE                    9
#>  6 Andorra    AD      AND     020          ISO 3166-… TRUE                   150
#>  7 Angola     AO      AGO     024          ISO 3166-… TRUE                     2
#>  8 Anguilla   AI      AIA     660          ISO 3166-… FALSE                   19
#>  9 Antarctica AQ      ATA     010          ISO 3166-… FALSE                   NA
#> 10 Antigua a… AG      ATG     028          ISO 3166-… TRUE                    19
#> # ℹ 255 more rows
#> # ℹ 12 more variables: region_name <chr>, subregion_code <int>,
#> #   subregion_name <chr>, intermediate_region_code <int>,
#> #   intermediate_region_name <chr>, m49_code <int>, oecd_member <lgl>,
#> #   currency_name <chr>, currency_code <chr>, currency_number <chr>,
#> #   country_name <chr>, country_number <chr>
```
