…
- <https://unstats.un.org/unsd/methodology/m49/overview>

- <https://en.wikipedia.org/wiki/OECD>

- <https://en.wikipedia.org/wiki/Member_state_of_the_European_Union>

- <https://en.wikipedia.org/wiki/Economic_and_Monetary_Union_of_the_European_Union>

- <https://en.wikipedia.org/wiki/European_Economic_Area>

## Examples

``` r
isocountry
#> # A tibble: 249 × 17
#>    name       alpha_2 alpha_3 country_code iso_3166_2 is_independent region_code
#>    <chr>      <chr>   <chr>   <chr>        <chr>      <lgl>                <int>
#>  1 Afghanist… AF      AFG     004          ISO 3166-… TRUE                   142
#>  2 Åland Isl… AX      ALA     248          ISO 3166-… FALSE                  150
#>  3 Albania    AL      ALB     008          ISO 3166-… TRUE                   150
#>  4 Algeria    DZ      DZA     012          ISO 3166-… TRUE                     2
#>  5 American … AS      ASM     016          ISO 3166-… FALSE                    9
#>  6 Andorra    AD      AND     020          ISO 3166-… TRUE                   150
#>  7 Angola     AO      AGO     024          ISO 3166-… TRUE                     2
#>  8 Anguilla   AI      AIA     660          ISO 3166-… FALSE                   19
#>  9 Antarctica AQ      ATA     010          ISO 3166-… FALSE                   NA
#> 10 Antigua a… AG      ATG     028          ISO 3166-… TRUE                    19
#> # ℹ 239 more rows
#> # ℹ 10 more variables: region_name <chr>, subregion_code <int>,
#> #   subregion_name <chr>, intermediate_region_code <int>,
#> #   intermediate_region_name <chr>, m49_code <int>, oecd_member <lgl>,
#> #   eu_member <lgl>, emu_member <lgl>, eea_member <lgl>
```
